{
  "spec_dir": "spec",
  "spec_files": [
    "*Spec.js"
  ],
  "helpers": [
    "../js/*.js",
	"../js/eonjs/eonjs.js",
	"../js/eonjs/momentrecurrule.js",
    "helpers/TestData.js",
    "helpers/MomentRecurTestData.js"
  ],
  "stopSpecOnExpectationFailure": false,
  "random": false
}